[
    {"label": "appetizer"},
    {"label": "batter"},
    {"label": "beverage"},
    {"label": "bread"},
    {"label": "burrito"},
    {"label": "candy"},
    {"label": "casserole"},
    {"label": "chili"},
    {"label": "chutney"},
    {"label": "cocktails‎"},
    {"label": "compote"},
    {"label": "confection"},
    {"label": "coriander"},
    {"label": "crabstick"},
    {"label": "crumble"},
    {"label": "curry"},
    {"label": "fresh"},
    {"label": "fried-rice"},
    {"label": "fritter"},
    {"label": "frosting-and-icing"},
    {"label": "jam-and-jelly"},
    {"label": "low-fat"},
    {"label": "marsala-wine"},
    {"label": "omelette"},
    {"label": "pancake"},
    {"label": "pasta"},
    {"label": "pastry"},
    {"label": "pot-pie"},
    {"label": "puff-pastry"},
    {"label": "salad"},
    {"label": "sandwich"},
    {"label": "sauce"},
    {"label": "scone"},
    {"label": "semolina"},
    {"label": "side-dish"},
    {"label": "smoothie"},
    {"label": "snacks"},
    {"label": "souffle"},
    {"label": "soup"},
    {"label": "spice-mix"},
    {"label": "stew"},
    {"label": "stock"},
    {"label": "sushi"},
    {"label": "waffle"},
    {"label": "yummy"}
]
